…
# Display frequency tables
print(gender_table)
```

    ## # A tibble: 2 × 3
    ##   gender Count Percentage
    ##   <fct>  <int>      <dbl>
    ## 1 Male     608       77.2
    ## 2 Female   180       22.8

``` r
print(interventions_table)
```

    ## # A tibble: 32 × 3
    ##    interventions Count Percentage
    ##    <fct>         <int>      <dbl>
    ##  1 0               128      16.2 
    ##  2 1               125      15.9 
    ##  3 2               110      14.0 
    ##  4 3                74       9.39
    ##  5 4                60       7.61
    ##  6 5                52       6.60
    ##  7 6                52       6.60
    ##  8 7                32       4.06
    ##  9 8                25       3.17
    ## 10 9                19       2.41
    ## # ℹ 22 more rows
…
